<svg xmlns="http://www.w3.org/2000/svg" xmlns:xlink="http://www.w3.org/1999/xlink" width="94" height="128.001" viewBox="0 0 94 128.001">
  <defs>
    <style>
      .a {
        opacity: 0.4;
      }

      .b {
        fill: url(#a);
      }

      .c {
        fill: #152365;
        opacity: 0.7;
        isolation: isolate;
      }

      .d {
        fill: url(#b);
      }

      .e {
        fill: url(#c);
      }

      .f {
        fill: url(#d);
      }

      .g {
        fill: url(#e);
      }
    </style>
    <linearGradient id="a" x1="-588.561" y1="458.827" x2="-588.46" y2="459.166" gradientTransform="matrix(100, 0, 0, -82, 58864.5, 37648.71)" gradientUnits="userSpaceOnUse">
      <stop offset="0" stop-color="#526ede"/>
      <stop offset="1" stop-color="#627be0"/>
    </linearGradient>
    <linearGradient id="b" x1="-588.561" y1="458.504" x2="-588.46" y2="458.843" xlink:href="#a"/>
    <linearGradient id="c" x1="-588.561" y1="458.181" x2="-588.46" y2="458.519" xlink:href="#a"/>
    <linearGradient id="d" x1="-588.561" y1="457.858" x2="-588.46" y2="458.196" xlink:href="#a"/>
    <linearGradient id="e" x1="-588.561" y1="457.534" x2="-588.46" y2="457.873" xlink:href="#a"/>
  </defs>
  <title>Manage</title>
  <g>
    <g class="a">
      <rect class="b" width="26.83" height="22.001" rx="0.537" ry="0.537"/>
    </g>
    <rect class="c" x="36.83" y="5.21" width="57.17" height="3"/>
    <rect class="c" x="36.83" y="12.71" width="23" height="3"/>
  </g>
  <g>
    <g class="a">
      <rect class="d" y="26.5" width="26.83" height="22.001" rx="0.537" ry="0.537"/>
    </g>
    <rect class="c" x="36.83" y="31.71" width="57.17" height="3"/>
    <rect class="c" x="36.83" y="39.21" width="23" height="3"/>
  </g>
  <g>
    <g class="a">
      <rect class="e" y="53" width="26.83" height="22.001" rx="0.537" ry="0.537"/>
    </g>
    <rect class="c" x="36.83" y="58.21" width="57.17" height="3"/>
    <rect class="c" x="36.83" y="65.71" width="23" height="3"/>
  </g>
  <g>
    <g class="a">
      <rect class="f" y="79.5" width="26.83" height="22.001" rx="0.537" ry="0.537"/>
    </g>
    <rect class="c" x="36.83" y="84.71" width="57.17" height="3"/>
    <rect class="c" x="36.83" y="92.21" width="23" height="3"/>
  </g>
  <g>
    <g class="a">
      <rect class="g" y="106" width="26.83" height="22.001" rx="0.537" ry="0.537"/>
    </g>
    <rect class="c" x="36.83" y="111.21" width="57.17" height="3"/>
    <rect class="c" x="36.83" y="118.71" width="23" height="3"/>
  </g>
</svg>
